Literature Review and Scientific Challenge – AgriPredict
…
Code

# Unnest the author column
Final_df_unique_expanded <- Final_df_unique |>
  unnest(author) |>
  select(title, given, family)

# Rename the author name columns
Final_df_unique_expanded <- Final_df_unique_expanded |>
  rename(Author_First_Name = given, Author_Last_Name = family)

# Print the expanded data frame
print(Final_df_unique_expanded)

# A tibble: 645 × 3
   title                                      Author_First_Name Author_Last_Name
   <chr>                                      <chr>             <chr>           
 1 stochvolTMB: Likelihood Estimation of Sto… <NA>              <NA>            
 2 mbreaks: Estimation and Inference for Str… Linh              Nguyen          
 3 mbreaks: Estimation and Inference for Str… Yohei             Yamamoto        
 4 mbreaks: Estimation and Inference for Str… Pierre            Perron          
 5 World regional natural gas prices: Conver… Jose Roberto      Loureiro        
 6 World regional natural gas prices: Conver… Julian            Inchauspe       
 7 World regional natural gas prices: Conver… Roberto F.        Aguilera        
 8 World commodity prices and partial defaul… Manoj             Atolia          
 9 World commodity prices and partial defaul… Shuang            Feng            
10 Who should buy stocks when volatility spi… Andrés            Schneider       
# ℹ 635 more rows

Now inserting the authors name in a new df

Code

authors_df <- Final_df_unique_expanded |>
  group_by(title) |>
  summarise(Author_Names = paste(Author_First_Name, Author_Last_Name, collapse = "; ")) |>
  ungroup()

print(authors_df)

# A tibble: 282 × 2
   title                                                            Author_Names
   <chr>                                                            <chr>       
 1 A Behavioral Approach to Pricing in Commodity Markets: Dual Pro… Florian Dos…
 2 A CEEMD-ARIMA-SVM model with structural breaks to forecast the … Yuxiang Che…
 3 A Commodity Review Sentiment Analysis Based on BERT-CNN Model    Junchao Don…
 4 A Study of Asymmetric Volatilities in Korean Stock Markets Usin… Eunhee Lee  
 5 A Theoretical Framework for Reconceiving Agricultural Markets    Anthony Pah…
 6 A double mixture autoregressive model of commodity prices        Gilbert Mba…
 7 A note on institutional hierarchy and volatility in financial m… S. Alfarano…
 8 A quantile autoregression analysis of price volatility in agric… Jean‐Paul C…
 9 ARE AGRICULTURAL COMMODITY PRICES AFFECTED BY COVID-19? A STRUC… Katarzyna C…
10 ASV: Stochastic Volatility Models with or without Leverage       Yasuhiro Om…
# ℹ 272 more rows
…
Code

print(df_author)

# A tibble: 645 × 11
   title  name  sequence given family ORCID authenticated.orcid affiliation.name
   <chr>  <chr> <chr>    <chr> <chr>  <chr> <lgl>               <chr>           
 1 stoch… Jens… first    <NA>  <NA>   <NA>  NA                  <NA>            
 2 mbrea… <NA>  first    Linh  Nguyen <NA>  NA                  <NA>            
 3 mbrea… <NA>  additio… Yohei Yamam… <NA>  NA                  <NA>            
 4 mbrea… <NA>  additio… Pier… Perron <NA>  NA                  <NA>            
 5 World… <NA>  first    Jose… Loure… http… FALSE               <NA>            
 6 World… <NA>  additio… Juli… Incha… <NA>  NA                  <NA>            
 7 World… <NA>  additio… Robe… Aguil… <NA>  NA                  <NA>            
 8 World… <NA>  first    Manoj Atolia http… FALSE               <NA>            
 9 World… <NA>  additio… Shua… Feng   <NA>  NA                  <NA>            
10 Who s… <NA>  first    Andr… Schne… <NA>  NA                  <NA>            
# ℹ 635 more rows
# ℹ 3 more variables: affiliation1.name <chr>, affiliation2.name <chr>,
#   affiliation3.name <chr>
…
